<?xml version="1.0" encoding="utf-8"?>
<!-- Generator: Adobe Illustrator 19.2.1, SVG Export Plug-In . SVG Version: 6.00 Build 0)  -->
<svg version="1.1" id="Layer_1" xmlns="http://www.w3.org/2000/svg" xmlns:xlink="http://www.w3.org/1999/xlink" x="0px" y="0px"
	 viewBox="0 0 18 15" enable-background="new 0 0 18 15" xml:space="preserve">
<g>
	<path fill="#C7C7C7" d="M0,8v5c0,0.5,0.5,1,1,1h2V7H1C0.5,7,0,7.5,0,8z"/>
	<path fill="#C7C7C7" d="M16.1,5h-5.6l1.5-3.1c0,0,0.2-0.3,0.1-0.7s-0.4-0.6-0.4-0.6l-0.5-0.4c0,0-0.3-0.2-0.6-0.1
		C10.1,0,10,0.2,10,0.3C9.2,1.2,7.7,3,7.4,3.5C6.2,4.9,5.6,5.1,4.8,5.7C4,6.4,4,6.9,4,6.9l0,6.9C5.8,14.6,8,15,8.5,15h5.9
		c1,0,1.6-0.7,1.9-1.7L18,7.3C18.2,6.2,17.1,5,16.1,5z"/>
</g>
</svg>
