<?xml version="1.0" encoding="utf-8"?>
<svg version="1.1"  xmlns="http://www.w3.org/2000/svg" xmlns:xlink="http://www.w3.org/1999/xlink" x="0px" y="0px"
	 width="53px" height="53px" viewBox="0 0 53 53" enable-background="new 0 0 53 53" xml:space="preserve">
	<path fill="#2a125d" d="M26.5,0C11.9,0,0,11.9,0,26.5S11.9,53,26.5,53S53,41.1,53,26.5S41.1,0,26.5,0z M36.6,28.4
		c0.2,0.2,0.6,0.6,1.2,1.3h0l0,0l0,0l0,0c1.4,1.4,2.4,2.5,2.9,3.4c0,0.1,0.1,0.1,0.1,0.2c0,0.1,0.1,0.2,0.1,0.4c0,0.2,0,0.4,0,0.5
		c0,0.2-0.2,0.3-0.4,0.4c-0.2,0.1-0.5,0.2-0.9,0.2L35.8,35c-0.2,0.1-0.5,0-0.8-0.1c-0.3-0.1-0.6-0.2-0.8-0.3l-0.3-0.2
		c-0.3-0.2-0.7-0.5-1.1-1c-0.4-0.4-0.7-0.8-1-1.2c-0.3-0.4-0.6-0.7-0.9-0.9C30.5,31,30.2,31,30,31c0,0-0.1,0-0.1,0.1
		c-0.1,0-0.1,0.1-0.3,0.2c-0.1,0.1-0.2,0.3-0.3,0.5c-0.1,0.2-0.2,0.4-0.3,0.8c-0.1,0.4-0.1,0.8-0.1,1.2c0,0.2,0,0.3-0.1,0.4
		c0,0.1-0.1,0.2-0.1,0.3l-0.1,0.1c-0.2,0.2-0.4,0.3-0.8,0.3h-1.7c-0.7,0-1.4,0-2.2-0.3c-0.8-0.2-1.4-0.5-2-0.8
		c-0.6-0.3-1.1-0.7-1.6-1c-0.5-0.3-0.8-0.6-1.1-0.9L19,31.6c-0.1-0.1-0.2-0.3-0.4-0.5c-0.2-0.2-0.5-0.7-1.1-1.4
		c-0.5-0.7-1.1-1.5-1.6-2.3c-0.5-0.8-1.1-1.9-1.8-3.3c-0.7-1.4-1.4-2.8-2-4.2C12,19.7,12,19.5,12,19.4c0-0.1,0-0.2,0-0.2l0.1-0.1
		c0.2-0.2,0.4-0.3,0.9-0.3l4.1,0c0.1,0,0.2,0.1,0.3,0.1c0.1,0,0.2,0.1,0.2,0.1l0.1,0c0.2,0.1,0.3,0.3,0.4,0.5
		c0.2,0.5,0.4,1.1,0.7,1.6c0.3,0.6,0.5,1,0.6,1.3l0.2,0.5c0.3,0.6,0.6,1.2,0.8,1.6c0.3,0.5,0.5,0.8,0.7,1.1
		c0.2,0.3,0.4,0.5,0.6,0.6c0.2,0.1,0.4,0.2,0.5,0.2c0.1,0,0.3,0,0.4-0.1c0,0,0,0,0.1-0.1c0,0,0.1-0.2,0.2-0.3
		c0.1-0.2,0.2-0.4,0.2-0.7c0-0.3,0.1-0.7,0.1-1.3c0.1-0.5,0.1-1.2,0-1.9c0-0.4-0.1-0.8-0.1-1.1c-0.1-0.3-0.1-0.6-0.2-0.7L23,19.9
		c-0.3-0.4-0.7-0.6-1.3-0.7c-0.1,0-0.1-0.1,0.1-0.4c0.2-0.2,0.4-0.4,0.6-0.5c0.5-0.3,1.7-0.4,3.6-0.4c0.8,0,1.5,0.1,2,0.2
		c0.2,0.1,0.4,0.1,0.5,0.2c0.1,0.1,0.2,0.2,0.3,0.4c0.1,0.2,0.1,0.3,0.2,0.5c0,0.2,0.1,0.4,0.1,0.7c0,0.3,0,0.6,0,0.9
		c0,0.3,0,0.6,0,1.1c0,0.5,0,0.9,0,1.3c0,0.1,0,0.3,0,0.7c0,0.3,0,0.6,0,0.7c0,0.2,0,0.4,0.1,0.6c0,0.2,0.1,0.4,0.2,0.6
		c0.1,0.2,0.2,0.3,0.3,0.4c0.1,0,0.2,0,0.3,0.1c0.1,0,0.2,0,0.4-0.2c0.2-0.1,0.4-0.3,0.6-0.5c0.2-0.2,0.5-0.6,0.8-1
		c0.3-0.5,0.7-1,1-1.7c0.6-1.1,1.1-2.2,1.6-3.5c0-0.1,0.1-0.2,0.2-0.3c0.1-0.1,0.1-0.1,0.2-0.2l0.1,0c0,0,0,0,0.1,0
		c0,0,0.1,0,0.2,0c0.1,0,0.2,0,0.3,0l4.3,0c0.4-0.1,0.7,0,1,0c0.3,0.1,0.4,0.2,0.5,0.3l0.1,0.2c0.2,0.7-0.5,2.2-2.3,4.6
		c-0.2,0.3-0.6,0.8-1,1.3c-0.8,1-1.2,1.7-1.4,2C36.2,27.6,36.2,28,36.6,28.4z"/>
</svg>
